<?xml version="1.0" encoding="UTF-8"?>
<symbol version="7" name="clk_dividor">
    <symboltype>BLOCK</symboltype>
    <timestamp>2013-5-2T15:37:5</timestamp>
    <pin polarity="Input" x="0" y="-32" name="CLK_IN" />
    <pin polarity="Output" x="384" y="-32" name="SLOW_CLK_OUT" />
    <graph>
        <rect width="256" x="64" y="-64" height="64" />
        <attrtext style="alignment:BCENTER;fontsize:56;fontname:Arial" attrname="SymbolName" x="192" y="-72" type="symbol" />
        <line x2="0" y1="-32" y2="-32" x1="64" />
        <attrtext attrname="PinName" x="72" y="-32" type="pin CLK_IN" />
        <line x2="384" y1="-32" y2="-32" x1="320" />
        <attrtext style="alignment:RIGHT" attrname="PinName" x="312" y="-32" type="pin SLOW_CLK_OUT" />
    </graph>
</symbol>
