<?xml version="1.0" encoding="UTF-8"?>
<drawing version="7">
    <attr value="xc9500xl" name="DeviceFamilyName">
        <trait delete="all:0" />
        <trait editname="all:0" />
        <trait edittrait="all:0" />
    </attr>
    <netlist>
        <signal name="XLXN_1" />
        <signal name="XLXN_2" />
        <signal name="XLXN_3" />
        <signal name="XLXN_5" />
        <signal name="XLXN_21" />
    </netlist>
    <sheet sheetnum="1" width="3520" height="2720">
        <branch name="XLXN_21">
            <wire x2="1760" y1="480" y2="480" x1="800" />
        </branch>
    </sheet>
</drawing>