<?xml version="1.0" encoding="UTF-8"?>
<symbol version="7" name="sipo2">
    <symboltype>BLOCK</symboltype>
    <timestamp>2013-5-1T14:26:57</timestamp>
    <pin polarity="Input" x="0" y="-96" name="CLOCK" />
    <pin polarity="Output" x="384" y="-96" name="Q0" />
    <pin polarity="Output" x="384" y="-160" name="Q1" />
    <pin polarity="Output" x="384" y="-32" name="Q2" />
    <pin polarity="Input" x="0" y="-160" name="SERIAL_IN" />
    <graph>
        <rect width="256" x="64" y="-192" height="192" />
        <attrtext style="alignment:BCENTER;fontsize:56;fontname:Arial" attrname="SymbolName" x="192" y="-200" type="symbol" />
        <line x2="0" y1="-96" y2="-96" x1="64" />
        <attrtext style="fontsize:24;fontname:Arial" attrname="PinName" x="72" y="-96" type="pin CLOCK" />
        <line x2="384" y1="-96" y2="-96" x1="320" />
        <attrtext style="alignment:RIGHT;fontsize:24;fontname:Arial" attrname="PinName" x="312" y="-96" type="pin Q0" />
        <line x2="384" y1="-160" y2="-160" x1="320" />
        <attrtext style="alignment:RIGHT;fontsize:24;fontname:Arial" attrname="PinName" x="312" y="-160" type="pin Q1" />
        <line x2="384" y1="-32" y2="-32" x1="320" />
        <attrtext style="alignment:RIGHT;fontsize:24;fontname:Arial" attrname="PinName" x="312" y="-32" type="pin Q2" />
        <line x2="0" y1="-160" y2="-160" x1="64" />
        <attrtext style="fontsize:24;fontname:Arial" attrname="PinName" x="72" y="-160" type="pin SERIAL_IN" />
    </graph>
</symbol>
