vhdl work "\\homefs\student\do543\Robot\Robot\sipo.vhf"
vhdl work "\\homefs\student\do543\Robot\Robot\sensors.vhf"
vhdl work "\\homefs\student\do543\Robot\Robot\decoder.vhf"
vhdl work "\\homefs\student\do543\Robot\Robot\Robot_V1.vhf"
vhdl work "\\homefs\student\do543\Robot\Robot\Top_Level.vhf"
